module gowatcher/go_monitor

go 1.12

require (
	github.com/fastly/go-utils v0.0.0-20180712184237-d95a45783239 // indirect
	github.com/gin-gonic/gin v1.5.0
	github.com/jehiah/go-strftime v0.0.0-20171201141054-1d33003b3869 // indirect
	github.com/jinzhu/gorm v1.9.11
	github.com/jonboulle/clockwork v0.1.0 // indirect
	github.com/kr/pretty v0.1.0 // indirect
	github.com/lestrrat-go/file-rotatelogs v2.2.0+incompatible
	github.com/lestrrat-go/strftime v1.0.0 // indirect
	github.com/rifflock/lfshook v0.0.0-20180920164130-b9218ef580f5
	github.com/sirupsen/logrus v1.4.2
	github.com/tebeka/strftime v0.1.3 // indirect
	gopkg.in/yaml.v2 v2.2.2
)
